gmp_tb.vcd
$date
	Tue Apr 29 23:32:30 2025
$end
$version
	Icarus Verilog
$end
$timescale
	1ps
$end
$scope module tb_gmp $end
$var wire 1 ! o_clk $end
$var wire 7 " led [6:0] $end
$var wire 4 # bcd_units [3:0] $end
$var wire 4 $ bcd_tens [3:0] $end
$var reg 1 % clk $end
$var reg 8 & correct_sum [7:0] $end
$var reg 1 ' rst $end
$var reg 7 ( switch [6:0] $end
$var integer 32 ) correct [31:0] $end
$var integer 32 * cycle [31:0] $end
$scope module uut $end
$var wire 1 % clk $end
$var wire 1 ! o_clk $end
$var wire 1 ' rst $end
$var wire 7 + switch [6:0] $end
$var wire 4 , bcd_units [3:0] $end
$var wire 4 - bcd_tens [3:0] $end
$var reg 4 . counter [3:0] $end
$var reg 8 / current_output [7:0] $end
$var reg 7 0 led [6:0] $end
$var reg 5 1 lfsr_reg [4:0] $end
$var reg 8 2 sum [7:0] $end
$scope module bcd_inst $end
$var wire 8 3 binary_in [7:0] $end
$var wire 8 4 clamped_input [7:0] $end
$var wire 4 5 units [3:0] $end
$var wire 4 6 tens [3:0] $end
$upscope $end
$upscope $end
$upscope $end
$enddefinitions $end
$comment Show the parameter values. $end
$dumpall
$end
#0
$dumpvars
b0 6
b0 5
b0 4
b0 3
b0 2
b10101 1
b0 0
b0 /
b0 .
b0 -
b0 ,
b0 +
b0 *
b0 )
b0 (
1'
b0 &
0%
b0 $
b0 #
b0 "
0!
$end
#5000
1!
1%
#10000
0!
0%
#15000
1!
1%
#20000
0!
0%
0'
#25000
b10 $
b10 -
b10 6
b1 #
b1 ,
b1 5
b10101 2
b1010100 "
b1010100 0
b10101 4
b10101 /
b10101 3
b1010 1
b1 .
b10101 &
b1 *
1!
1%
#30000
0!
0%
#35000
b1 $
b1 -
b1 6
b0 #
b0 ,
b0 5
b11111 2
b101000 "
b101000 0
b1010 4
b1010 /
b1010 3
b10100 1
b10 .
b11111 &
b10 *
1!
1%
#40000
0!
0%
#45000
b10 $
b10 -
b10 6
b110011 2
b1010000 "
b1010000 0
b10100 4
b10100 /
b10100 3
b1000 1
b11 .
b110011 &
b11 *
1!
1%
#50000
0!
0%
#55000
b0 $
b0 -
b0 6
b1000 #
b1000 ,
b1000 5
b111011 2
b100000 "
b100000 0
b1000 4
b1000 /
b1000 3
b10000 1
b100 .
b100 *
1!
1%
#60000
0!
0%
#65000
b0 #
b0 ,
b0 5
b0 4
b0 /
b0 3
b101 .
b1 )
b0 &
b101 *
1!
1%
#70000
0!
0%
#75000
b110 .
b110 *
1!
1%
#80000
0!
0%
#85000
b111 .
b111 *
1!
1%
#90000
0!
0%
#95000
b1000 .
b1000 *
1!
1%
#100000
0!
0%
#105000
b1001 .
b1001 *
1!
1%
#110000
0!
0%
#115000
b10 #
b10 ,
b10 5
b10 4
b10 /
b10 3
b1010 .
b0 )
b10 (
b10 +
b1010 *
1!
1%
#120000
0!
0%
#125000
b1011 .
b1011 *
1!
1%
#130000
0!
0%
#135000
b101 $
b101 -
b101 6
b1001 #
b1001 ,
b1001 5
b1010101 "
b1010101 0
b111011 4
b111011 /
b111011 3
b1100 .
b1100 *
1!
1%
#140000
0!
0%
#145000
b0 $
b0 -
b0 6
b0 #
b0 ,
b0 5
b0 "
b0 0
b0 4
b0 /
b0 3
b1101 .
b1101 *
1!
1%
#150000
0!
0%
#155000
b1110 .
b1110 *
1!
1%
#160000
0!
0%
#165000
b1111 .
b1111 *
1!
1%
#170000
0!
0%
#175000
b0 2
b1111111 "
b1111111 0
b0 .
b10000 &
b10000 *
1!
1%
#180000
0!
0%
#185000
b1 $
b1 -
b1 6
b110 #
b110 ,
b110 5
b10000 2
b1000000 "
b1000000 0
b10000 4
b10000 /
b10000 3
b1 1
b1 .
b100000 &
b10001 *
1!
1%
#190000
0!
0%
#195000
b0 $
b0 -
b0 6
b1 #
b1 ,
b1 5
b10001 2
b100 "
b100 0
b1 4
b1 /
b1 3
b10 1
b10 .
b100001 &
b10010 *
1!
1%
#200000
0!
0%
#205000
b10 #
b10 ,
b10 5
b10011 2
b1000 "
b1000 0
b10 4
b10 /
b10 3
b100 1
b11 .
b100011 &
b10011 *
1!
1%
#210000
0!
0%
#215000
b100 #
b100 ,
b100 5
b10111 2
b10000 "
b10000 0
b100 4
b100 /
b100 3
b1001 1
b100 .
b10100 *
1!
1%
#220000
0!
0%
#225000
b0 #
b0 ,
b0 5
b0 4
b0 /
b0 3
b101 .
b1 )
b0 (
b0 +
b0 &
b10101 *
1!
1%
#230000
0!
0%
#235000
b110 .
b10110 *
1!
1%
#240000
0!
0%
#245000
b111 .
b10111 *
1!
1%
#250000
0!
0%
#255000
b1000 .
b11000 *
1!
1%
#260000
0!
0%
#265000
b1001 .
b11001 *
1!
1%
#270000
0!
0%
#275000
b1000 #
b1000 ,
b1000 5
b1000 4
b1000 /
b1000 3
b1010 .
b0 )
b1000 (
b1000 +
b11010 *
1!
1%
#280000
0!
0%
#285000
b1011 .
b11011 *
1!
1%
#290000
0!
0%
#295000
b10 $
b10 -
b10 6
b11 #
b11 ,
b11 5
b1010101 "
b1010101 0
b10111 4
b10111 /
b10111 3
b1100 .
b11100 *
1!
1%
#300000
0!
0%
#305000
b0 $
b0 -
b0 6
b0 #
b0 ,
b0 5
b0 "
b0 0
b0 4
b0 /
b0 3
b1101 .
b11101 *
1!
1%
#310000
0!
0%
#315000
b1110 .
b11110 *
1!
1%
#320000
0!
0%
#325000
b1111 .
b11111 *
1!
1%
#330000
0!
0%
#335000
b0 2
b1111111 "
b1111111 0
b0 .
b1001 &
b100000 *
1!
1%
#340000
0!
0%
#345000
b1001 #
b1001 ,
b1001 5
b1001 2
b100100 "
b100100 0
b1001 4
b1001 /
b1001 3
b10010 1
b1 .
b10010 &
b100001 *
1!
1%
#350000
0!
0%
#355000
b1 $
b1 -
b1 6
b1000 #
b1000 ,
b1000 5
b11011 2
b1001000 "
b1001000 0
b10010 4
b10010 /
b10010 3
b101 1
b10 .
b100100 &
b100010 *
1!
1%
#360000
0!
0%
#365000
b0 $
b0 -
b0 6
b101 #
b101 ,
b101 5
b100000 2
b10100 "
b10100 0
b101 4
b101 /
b101 3
b1011 1
b11 .
b101001 &
b100011 *
1!
1%
#370000
0!
0%
#375000
b1 $
b1 -
b1 6
b1 #
b1 ,
b1 5
b101011 2
b101100 "
b101100 0
b1011 4
b1011 /
b1011 3
b10110 1
b100 .
b100100 *
1!
1%
#380000
0!
0%
#385000
b0 $
b0 -
b0 6
b0 #
b0 ,
b0 5
b0 4
b0 /
b0 3
b101 .
b100 (
b100 +
b0 &
b100101 *
1!
1%
#390000
0!
0%
#395000
b110 .
b1 )
b0 (
b0 +
b100110 *
1!
1%
#400000
0!
0%
#405000
b111 .
b100111 *
1!
1%
#410000
0!
0%
#415000
b11 #
b11 ,
b11 5
b11 4
b11 /
b11 3
b1000 .
b0 )
b11 (
b11 +
b101000 *
1!
1%
#420000
0!
0%
#425000
b0 #
b0 ,
b0 5
b0 4
b0 /
b0 3
b1001 .
b1 )
b0 (
b0 +
b101001 *
1!
1%
#430000
0!
0%
#435000
b1 $
b1 -
b1 6
b1010 4
b1010 /
b1010 3
b1010 .
b0 )
b1010 (
b1010 +
b101010 *
1!
1%
#440000
0!
0%
#445000
b1011 .
b101011 *
1!
1%
#450000
0!
0%
#455000
b100 $
b100 -
b100 6
b11 #
b11 ,
b11 5
b1010101 "
b1010101 0
b101011 4
b101011 /
b101011 3
b1100 .
b101100 *
1!
1%
#460000
0!
0%
#465000
b0 $
b0 -
b0 6
b0 #
b0 ,
b0 5
b0 "
b0 0
b0 4
b0 /
b0 3
b1101 .
b101101 *
1!
1%
#470000
0!
0%
#475000
b1110 .
b101110 *
1!
1%
#480000
0!
0%
#485000
b1111 .
b101111 *
1!
1%
#490000
0!
0%
#495000
b0 2
b1111111 "
b1111111 0
b0 .
b10110 &
b110000 *
1!
1%
#500000
0!
0%
#505000
b10 $
b10 -
b10 6
b10 #
b10 ,
b10 5
b10110 2
b1011000 "
b1011000 0
b10110 4
b10110 /
b10110 3
b1100 1
b1 .
b101100 &
b110001 *
1!
1%
#510000
0!
0%
#515000
b1 $
b1 -
b1 6
b100010 2
b110000 "
b110000 0
b1100 4
b1100 /
b1100 3
b11001 1
b10 .
b111000 &
b110010 *
1!
1%
#520000
0!
0%
#525000
b10 $
b10 -
b10 6
b101 #
b101 ,
b101 5
b111011 2
b1100100 "
b1100100 0
b11001 4
b11001 /
b11001 3
b10011 1
b11 .
b1010001 &
b110011 *
1!
1%
#530000
0!
0%
#535000
b1 $
b1 -
b1 6
b1001 #
b1001 ,
b1001 5
b1001110 2
b1001100 "
b1001100 0
b10011 4
b10011 /
b10011 3
b111 1
b100 .
b110100 *
1!
1%
#540000
0!
0%
#545000
b0 $
b0 -
b0 6
b0 #
b0 ,
b0 5
b0 4
b0 /
b0 3
b101 .
b1 )
b0 (
b0 +
b0 &
b110101 *
1!
1%
#550000
0!
0%
#555000
b110 .
b110110 *
1!
1%
#560000
0!
0%
#565000
b111 .
b110111 *
1!
1%
#570000
0!
0%
#575000
b1000 .
b111000 *
1!
1%
#580000
0!
0%
#585000
b1001 .
b111001 *
1!
1%
#590000
0!
0%
#595000
b1010 .
b111010 *
1!
1%
#600000
0!
0%
#605000
b1011 .
b111011 *
1!
1%
#610000
0!
0%
#615000
b111 $
b111 -
b111 6
b1000 #
b1000 ,
b1000 5
b1010101 "
b1010101 0
b1001110 4
b1001110 /
b1001110 3
b1100 .
b111100 *
1!
1%
#620000
0!
0%
#625000
b0 $
b0 -
b0 6
b0 #
b0 ,
b0 5
b0 "
b0 0
b0 4
b0 /
b0 3
b1101 .
b111101 *
1!
1%
#630000
0!
0%
#635000
b1110 .
b111110 *
1!
1%
#640000
0!
0%
#645000
b1111 .
b111111 *
1!
1%
#650000
0!
0%
#655000
b0 2
b1111111 "
b1111111 0
b0 .
b111 &
b1000000 *
1!
1%
